%YAML 1.1
%TAG !u! tag:unity3d.com,2011:
--- !u!114 &11400000
MonoBehaviour:
  m_ObjectHideFlags: 0
  m_PrefabParentObject: {fileID: 0}
  m_PrefabInternal: {fileID: 0}
  m_GameObject: {fileID: 0}
  m_Enabled: 1
  m_EditorHideFlags: 0
  m_Script: {fileID: 11500000, guid: 7f86487d86b6b1b418acfda4a593dbfb, type: 3}
  m_Name: img008
  m_EditorClassIdentifier: 
  FullImage: {fileID: 2800000, guid: 06366412807b374418abd785165a1af1, type: 3}
  img:
  - {fileID: 21300032, guid: 06366412807b374418abd785165a1af1, type: 3}
  - {fileID: 21300034, guid: 06366412807b374418abd785165a1af1, type: 3}
  - {fileID: 21300036, guid: 06366412807b374418abd785165a1af1, type: 3}
  - {fileID: 21300038, guid: 06366412807b374418abd785165a1af1, type: 3}
  - {fileID: 21300040, guid: 06366412807b374418abd785165a1af1, type: 3}
  - {fileID: 21300042, guid: 06366412807b374418abd785165a1af1, type: 3}
  - {fileID: 21300044, guid: 06366412807b374418abd785165a1af1, type: 3}
  - {fileID: 21300046, guid: 06366412807b374418abd785165a1af1, type: 3}
  - {fileID: 21300048, guid: 06366412807b374418abd785165a1af1, type: 3}
  - {fileID: 21300050, guid: 06366412807b374418abd785165a1af1, type: 3}
  - {fileID: 21300052, guid: 06366412807b374418abd785165a1af1, type: 3}
  - {fileID: 21300054, guid: 06366412807b374418abd785165a1af1, type: 3}
  - {fileID: 21300056, guid: 06366412807b374418abd785165a1af1, type: 3}
  - {fileID: 21300058, guid: 06366412807b374418abd785165a1af1, type: 3}
  - {fileID: 21300060, guid: 06366412807b374418abd785165a1af1, type: 3}
  - {fileID: 21300062, guid: 06366412807b374418abd785165a1af1, type: 3}
