{
  "project_info": {
    "project_number": "184967691656",
    "project_id": "invictormikecrack-fdb3c",
    "storage_bucket": "invictormikecrack-fdb3c.appspot.com"
  },
  "client": [
    {
      "client_info": {
        "mobilesdk_app_id": "1:184967691656:android:d33ed6197328110f9bce3d",
        "android_client_info": {
          "package_name": "com.invictorMikecrackGames.invictorMikecrack"
        }
      },
      "oauth_client": [
        {
          "client_id": "184967691656-tfvp10p1ra7fg66lnv8papv12vdp4hld.apps.googleusercontent.com",
          "client_type": 3
        }
      ],
      "api_key": [
        {
          "current_key": "AIzaSyALBbFywDw5-OHg2Y_u42TEDdDwGndMNPw"
        }
      ],
      "services": {
        "appinvite_service": {
          "other_platform_oauth_client": [
            {
              "client_id": "184967691656-tfvp10p1ra7fg66lnv8papv12vdp4hld.apps.googleusercontent.com",
              "client_type": 3
            }
          ]
        }
      }
    }
  ],
  "configuration_version": "1"
}